         w __errno
00000000 a OSTCBStkPtr_OFFSET
00000014 a OSTCBNext_OFFSET
00000032 a OSTCBPrio_OFFSET
00000040 a OSCtxSw_SWITCH_PC
00080000 A __alt_mem_onchip_mem
00080000 T __reset
00080020 A __flash_exceptions_start
00080020 A __ram_exceptions_start
00080020 T alt_exception
00080020 T alt_irq_entry
000800ec T alt_irq_handler
00080188 A __ram_exceptions_end
00080188 T _start
000801d0 t alt_after_alt_main
000801d4 T alt_2_wireSetDelay
000801dc T alt_2_wireInit
000801f0 T alt_2_wireSendByte
00080318 T alt_2_wireStop
00080370 T alt_2_wireReadByte
00080584 T alt_2_wireStart
000805f0 T alt_uCOSIIErrorHandler
00080ab8 T alt_NetworkErrorHandler
00080c38 T disable_status
00080c54 T enable_status
00080c70 T acq_reset_interface
00080c9c T acq_handle_new_connection
00080d20 T acq_build_select_list
00080df8 t acq_buf_rdy_int_routine
00080e74 t status_int_routine
00080e9c T acq_close_connection
00080f28 T status_write_data
00080fc0 T acq_write_data
00081194 T acq_decode_command
0008130c T BLEDPAcqServerTask
0008176c T main
000817cc T sfp_reg_read
00081838 T sfp_reg_write
00081888 T sfp_config
00081958 T InitialTask
00081a98 T CRC8Maxim_LFSR
00081af4 T get_ip_addr
00081b68 T CRC8Maxim
00081c74 T get_mac_addr
00081f88 T fprintf
00081fb4 T _fprintf_r
00081fe8 T _fwrite_r
00082084 T fwrite
000820c4 T _perror_r
00082130 T perror
00082144 T printf
00082188 T _printf_r
000821bc T _puts_r
0008225c T puts
00082270 T strerror
000828e4 T strlen
00082958 T _user_strerror
00082960 t __sprint_r
000829b8 T ___vfprintf_internal_r
00084864 T __vfprintf_internal
00084888 T __swsetup_r
000849c4 t quorem
00084bdc T _dtoa_r
00086190 T _fflush_r
0008638c T fflush
000863c0 t std
00086418 T __sfp_lock_acquire
0008641c T __sfp_lock_release
00086420 T __sinit_lock_acquire
00086424 T __sinit_lock_release
00086428 T __sinit
000864cc t __fp_lock
000864d4 t __fp_unlock
000864dc T __fp_unlock_all
000864f4 T __fp_lock_all
0008650c T _cleanup_r
00086518 T _cleanup
00086528 T __sfmoreglue
00086590 T __sfp
00086680 T fputc
000866e4 T _fputc_r
0008673c T _fputs_r
000867b0 T fputs
000867cc T _malloc_trim_r
000868f8 T _free_r
00086c0c T __sfvwrite_r
000870a8 T _fwalk_reent
00087170 T _fwalk
00087228 T __locale_charset
00087230 T _localeconv_r
0008723c T localeconv
0008724c T _setlocale_r
000872d0 T setlocale
000872ec T __smakebuf_r
00087480 T _malloc_r
00087bc0 T memchr
00087ca4 T memcpy
00087d44 T memmove
00087e24 T memset
00087ebc T _Bfree
00087ee4 T __hi0bits
00087f54 T __lo0bits
00088018 T __mcmp
00088078 T __ulp
000880f8 T __b2d
00088218 T __ratio
000882c8 T _mprec_log10
0008835c T __copybits
000883b4 T __any_on
0008843c T _Balloc
000884f8 T __d2b
00088674 T __mdiff
00088800 T __lshift
0008894c T __multiply
00088b34 T __i2b
00088b70 T __multadd
00088c70 T __pow5mult
00088d90 T __s2b
00088eb0 T putc
00088fb4 T _putc_r
0008909c T _realloc_r
00089690 T __isinfd
000896d0 T __isnand
00089700 T _sbrk_r
00089770 T __sclose
00089778 T __sseek
000897e0 T __swrite
0008985c T __sread
000898bc T strcmp
00089978 T __swbuf_r
00089aa8 T __swbuf
00089ac4 T _write_r
00089b3c T _calloc_r
00089bf0 T _close_r
00089c60 T _fclose_r
00089d70 T fclose
00089d84 T _fstat_r
00089df8 T _isatty_r
00089e68 T _lseek_r
00089ee0 T _read_r
00089f58 T __udivdi3
0008a534 T __umoddi3
0008aae4 t _fpadd_parts
0008aef4 T __subdf3
0008af74 T __adddf3
0008afe8 T __muldf3
0008b3ac T __divdf3
0008b604 T __eqdf2
0008b68c T __nedf2
0008b714 T __gtdf2
0008b79c T __gedf2
0008b824 T __ltdf2
0008b8ac T __floatsidf
0008b9a4 T __fixdfsi
0008ba7c T __floatunsidf
0008bc10 t udivmodsi4
0008bc8c T __divsi3
0008bcec T __modsi3
0008bd4c T __udivsi3
0008bd54 T __umodsi3
0008bd5c T __muldi3
0008bdf4 T __clzsi2
0008be74 T __pack_d
0008c188 T __unpack_d
0008c2c0 T __fpcmp_parts_d
0008c388 T fstat
0008c418 T alt_ic_irq_enabled
0008c430 T alt_ic_irq_enable
0008c470 T alt_ic_irq_disable
0008c4b0 T alt_ic_isr_register
0008c4b4 T alt_iic_isr_register
0008c53c T isatty
0008c5c0 T alt_load
0008c674 T lseek
0008c710 T alt_main
0008c7b8 T alt_remap_uncached
0008c7e0 T sbrk
0008c834 T usleep
0008c95c T __env_unlock
0008c984 T __env_lock
0008ca14 T __malloc_unlock
0008ca74 T __malloc_lock
0008cb3c T OSVersion
0008cb44 T OS_Dummy
0008cb48 T OS_EventTaskWait
0008cbcc T OS_EventTaskWaitMulti
0008cc74 T OS_EventTaskRemove
0008ccc4 T OS_EventTaskRemoveMulti
0008cd24 T OS_EventWaitListInit
0008cd40 T OS_MemClr
0008cd60 T OS_MemCopy
0008cd88 T OS_StrCopy
0008cdbc T OS_StrLen
0008cde0 T OS_TaskStatStkChk
0008ce74 T OS_Sched
0008cf2c T OSStart
0008cf98 T OSInit
0008d218 T OSIntEnter
0008d258 T OSSchedLock
0008d2a0 T OSStatInit
0008d304 T OSTimeTick
0008d418 T OS_TaskIdle
0008d44c T OS_TCBInit
0008d5e8 T OSIntExit
0008d6d4 T OSEventNameGet
0008d7ac T OSEventNameSet
0008d87c T OS_EventTaskRdy
0008d9d0 T OS_TaskStat
0008dac4 T OSEventPendMulti
0008e01c T OSSchedUnlock
0008e11c T OSDebugInit
0008e120 T OS_FlagUnlink
0008e160 T OS_FlagInit
0008e1d0 T OSFlagQuery
0008e238 T OSFlagAccept
0008e3dc T OSFlagCreate
0008e46c T OSFlagDel
0008e688 T OSFlagNameGet
0008e7a4 T OSFlagNameSet
0008e8d0 T OSFlagPendGetFlagsRdy
0008e8fc T OSFlagPend
0008ed08 T OSFlagPost
0008efd8 T OS_MemInit
0008f040 T OSMemQuery
0008f0a4 T OSMemCreate
0008f188 T OSMemGet
0008f1f4 T OSMemNameGet
0008f2c8 T OSMemNameSet
0008f3c0 T OSMemPut
0008f418 T OS_QInit
0008f468 T OSQQuery
0008f518 T OSQAccept
0008f5c8 T OSQCreate
0008f6d0 T OSQDel
0008f8bc T OSQFlush
0008f914 T OSQPend
0008fad8 T OSQPendAbort
0008fc00 T OSQPost
0008fcdc T OSQPostFront
0008fdbc T OSQPostOpt
0008ff3c T OSSemSet
0008ffa8 T OSSemAccept
0008fff4 T OSSemCreate
00090094 T OSSemDel
00090238 T OSSemPend
000903e0 T OSSemPendAbort
0009050c T OSSemPost
000905c0 T OSSemQuery
00090634 T OS_TaskStkClr
00090664 T OSTaskQuery
00090768 T OSTaskChangePrio
00090a40 T OSTaskCreate
00090b68 T OSTaskDel
00090de8 T OSTaskDelReq
00090ea0 T OSTaskNameGet
00090fec T OSTaskNameSet
0009113c T OSTaskResume
00091254 T OSTaskStkChk
00091370 T OSTaskSuspend
000914c4 T OSTaskCreateExt
0009163c T OSTimeSet
00091660 T OSTimeDly
00091704 T OSTimeDlyResume
00091808 T OSTimeGet
0009182c T OSTimeDlyHMSM
00091ac4 T alt_sys_init
00091bd0 T alt_irq_init
00091bf0 T altera_avalon_jtag_uart_ioctl_fd
00091bfc T altera_avalon_jtag_uart_close_fd
00091c0c T altera_avalon_jtag_uart_write_fd
00091c1c T altera_avalon_jtag_uart_read_fd
00091c2c T altera_avalon_jtag_uart_close
00091c74 t altera_avalon_jtag_uart_timeout
00091d28 T altera_avalon_jtag_uart_init
00091df0 t altera_avalon_jtag_uart_irq
00091f90 T altera_avalon_jtag_uart_ioctl
00092018 T altera_avalon_jtag_uart_read
000921e8 T altera_avalon_jtag_uart_write
000923c8 T alt_avalon_sgdma_register_callback
000923d8 T alt_avalon_sgdma_init
0009246c T alt_avalon_sgdma_disable_desc_poll
0009248c T alt_avalon_sgdma_enable_desc_poll
000924bc T alt_avalon_sgdma_stop
000924d8 T alt_avalon_sgdma_start
000924f0 T alt_avalon_sgdma_do_sync_transfer
00092570 T alt_avalon_sgdma_do_async_transfer
00092600 t alt_avalon_sgdma_irq
0009265c T alt_avalon_sgdma_construct_descriptor_burst
000927cc T alt_avalon_sgdma_open
00092838 T alt_avalon_sgdma_check_descriptor_status
0009286c T alt_avalon_sgdma_construct_descriptor
000929c4 T alt_avalon_sgdma_construct_stream_to_mem_desc_burst
00092aa0 T alt_avalon_sgdma_construct_mem_to_mem_desc_burst
00092bcc T alt_avalon_sgdma_construct_mem_to_stream_desc_burst
00092d04 T alt_avalon_sgdma_construct_mem_to_mem_desc
00092e18 T alt_avalon_sgdma_construct_mem_to_stream_desc
00092f44 T alt_avalon_sgdma_construct_stream_to_mem_desc
0009300c T alt_avalon_timer_sc_init
0009305c t alt_avalon_timer_sc_irq
00093098 T tse_mac_close
00093134 T tse_mac_stats
00093158 T tse_mac_rcv
000932b8 T tse_sgdma_read_init
000933c8 T tse_mac_init
00093834 T prep_tse_mac
00093950 T tse_mac_raw_send
00093b30 T triple_speed_ethernet_init
00093d00 T tse_sgdmaRx_isr
00093ecc T close
00093edc T iniche_devices_init
00093fdc T read
00094014 T write
00094028 T c_older
00094074 T ip2mac
000941b4 T fixup_subnet_mask
00094248 T pktdemux
000944cc T netclose
00094590 T Netinit
00094810 T if_netnumber
00094870 T exit_hook
000948cc T ip_exit
00094938 T ip_startup
00094cb4 T igmp_init
00094d2c T igmp_print_stats
00094fd8 T igmp_validate
0009521c T igmp_send
0009540c T igmp_leavegroup
00095440 T igmp_joingroup
000955a4 T igmp_fasttimo
000956ec T igmp_input
000957b4 T bsd_i_sockoptlen
00095868 T bsd_select
00095948 T bsd_recvfrom
00095a40 T bsd_inet_ntoa
00095a44 T bsd_ioctl
00095ae0 T bsd_getsockname
00095bb8 T bsd_getpeername
00095c90 T bsd_accept
00095d5c T bsd_getsockopt
00095eb4 T bsd_setsockopt
00095fd0 T ccksum
00096018 T cksum
00096034 T nextarg
00096068 T print_eth
00096274 T uslash
000962a8 T parse_args
000963d8 T std_out
00096408 T do_trap
00096424 T panic
00096450 T print_uptime
000965a4 T print_ipad
000965fc T ns_printf
0009674c T con_page
00096838 T hexdump
00096ab4 T tk_nettick
00096b08 T tk_netmain
00096b8c T netmain
00096c58 T tk_stats
00096de4 T tk_yield
00096dec T TK_OSTimeDly
00096df4 T TK_OSTaskQuery
00096e48 T tcp_wakeup
00096ed0 T TK_OSTaskResume
00096f20 T tcp_sleep
0009703c T pk_get_max_intrsafe_buf_len
00097044 T dump_buf_estats
000970f4 T pk_validate
00097280 T pk_free
000972f8 T pk_alloc
00097380 T pk_init
00097544 T qdel
00097608 T putq
00097668 T getq
000976e0 T asm_cksum
00097700 t asm1
00097728 t loop
0009782c t loop0
00097848 t fold
00097870 t done
00097874 T clock_init
00097898 T clock_c
0009789c T cticks_hook
000978d8 T irq_Unmask
000978f8 T irq_Mask
00097928 T getch
00097950 T dtrap
0009795c T kbhit
00097a08 T post_app_sem
00097a68 T UNLOCK_NET_RESOURCE
00097ac8 T wait_app_sem
00097b7c T LOCK_NET_RESOURCE
00097c48 T TK_NEWTASK
00097dc0 T pre_task_setup
00097e18 T post_task_setup
00097e20 T npfree
00097ec8 T npalloc
00097f9c T ncpalloc
00097fdc T calloc2
00097fe8 T prep_armintcp
00097fec T alt_iniche_init
0009819c T ncpfree
00098240 T m_adj
00098324 T mbuf_len
00098350 T remque
00098370 T insque
00098390 T in_broadcast
00098398 T tcp_tick
00098418 T so_icmpdu
000985e0 T np_stripoptions
00098668 T dtom
000986c0 T nptcp_init
000987c0 T pffindtype
0009882c T m_free
00098928 T m_freem
0009894c T m_getnbuf
00098a78 T tcp_rcv
00098bb8 T m_copy
00098d9c T ip_output
00099110 T pffindproto
000991b4 T rawip_lookup
000991e0 T rawip_soinput
0009930c T rawip_usrreq
000997f8 T t_errno
0009986c T DOMAIN_CHECK
00099888 T t_socketclose
000998fc T t_shutdown
0009998c t t_getname
00099b10 T t_getsockname
00099b18 T t_getpeername
00099b20 T t_recvfrom
00099c04 T t_recv
00099cdc T t_getsockopt
00099dec T t_setsockopt
00099f08 T t_listen
00099f98 T t_socket
0009a010 T t_bind
0009a150 T t_accept
0009a348 T t_sendto
0009a518 T t_send
0009a684 T t_connect
0009a858 T sobind
0009a874 T solisten
0009a914 T soabort
0009a930 T sodisconnect
0009a970 T sohasoutofband
0009a980 T sogetopt
0009ac54 T sosetopt
0009aef8 T sorflush
0009afd0 T soshutdown
0009b054 T sosend
0009b384 T soaccept
0009b3f0 T soreceive
0009b874 T sofree
0009b95c T socreate
0009ba84 T soconnect
0009bb40 T soclose
0009bdb0 T soqinsque
0009bdf0 T soqremque
0009be6c T sbselqueue
0009be7c T sbreserve
0009be9c T sbdroprecord
0009beec T sbdropend
0009bf80 T sbdrop
0009c094 T sbflush
0009c0f8 T sbcompress
0009c224 T sbappendrecord
0009c2c4 T sbappend
0009c348 T sbappendaddr
0009c4b8 T sbwakeup
0009c520 T soisconnecting
0009c540 T sbwait
0009c57c T sonewconn
0009c730 T sbrelease
0009c7a0 T soreserve
0009c7dc T socantrcvmore
0009c85c T socantsendmore
0009c8dc T soisconnected
0009ca90 T soisdisconnected
0009cb8c T soisdisconnecting
0009cc74 T in_pcbnotify
0009cd68 T ifd_isset
0009cda4 T ifd_get
0009cddc T ifd_set
0009ce08 T ifd_clr
0009ce94 T tcp_notify
0009ced4 T sock_select
0009cfd0 T sock_selscan
0009d1a0 T t_select
0009d4fc T ip4_tcpmss
0009d518 T tcp_mss
0009d5a0 T tcp_xmit_timer
0009d734 T tcp_pulloutofband
0009d7f0 T tcp_reass
0009da6c T tcp_dooptions
0009dc20 T tcp_input
0009faa4 T tcp_setpersist
0009fb58 T tcp_output
000a0614 T tcp_init
000a0638 T tcp_quench
000a064c T tcp_putseq
000a0680 T tcp_getseq
000a06b8 T tcp_close
000a076c T tcp_drop
000a080c T tcp_newtcpcb
000a0898 T tcp_template
000a0934 T tcp_respond
000a0c84 T tcp_canceltimers
000a0c98 T tcp_timers
000a0f98 T tcp_slowtimo
000a11c8 T tcp_usrclosed
000a1284 T tcp_attach
000a1390 T tcp_disconnect
000a14b4 T tcp_usrreq
000a1a74 T tcpinit
000a1a78 T udp_lookup
000a1aa4 T udp4_sockaddr
000a1b30 T udp4_socksend
000a1d74 T udp4_sockbind
000a1f3c T udp_soinput
000a204c T udp_usrreq
000a22c4 T alt_alarm_start
000a2358 T alt_busy_sleep
000a23ec T alt_close
000a24dc T alt_dcache_flush
000a2504 T alt_dcache_flush_all
000a251c t alt_dev_null_write
000a2524 T alt_dev_llist_insert
000a25a0 T _do_ctors
000a25ec T _do_dtors
000a2638 T alt_find_dev
000a26cc T alt_icache_flush_all
000a26d8 T alt_io_redirect
000a27dc T open
000a295c T alt_read
000a2a78 T alt_release_fd
000a2a9c T alt_remap_cached
000a2aac T alt_alarm_stop
000a2ae0 T alt_tick
000a2bc8 T alt_uncached_malloc
000a2c10 T alt_write
000a2d28 T altera_nios2_qsys_irq_init
000a2d30 T OSCtxSw
000a2d30 T OSIntCtxSw
000a2dbc T OSStartHighRdy
000a2ddc T OSStartTsk
000a2e00 T OSTaskCreateHook
000a2e04 T OSTaskDelHook
000a2e08 T OSTaskSwHook
000a2e0c T OSTaskStatHook
000a2e10 T OSInitHookBegin
000a2e14 T OSInitHookEnd
000a2e18 T OSTaskIdleHook
000a2e1c T OSTCBInitHook
000a2e20 T OSTimeTickHook
000a2e24 T OSTaskStkInit
000a2ff0 T no_printf
000a3008 T tse_mac_initTransInfo2
000a3024 T alt_tse_get_system_index
000a3064 T alt_tse_get_mac_group_index
000a30b0 T alt_tse_get_mac_info_index
000a30f4 T alt_tse_get_mac_info
000a3160 T alt_tse_phy_print_profile
000a3168 T DP83848C_link_status_read
000a3190 T alt_tse_phy_rd_mdio_reg
000a31fc T alt_tse_phy_rd_mdio_addr
000a3218 T alt_tse_sys_enable_mdio_sharing
000a32f8 T marvell_cfg_rgmii
000a339c T marvell_cfg_sgmii
000a3434 T marvell_cfg_gmii
000a34cc T marvell_phy_cfg
000a3538 T alt_tse_phy_wr_mdio_reg
000a35c4 T alt_tse_phy_wr_mdio_addr
000a35e8 T alt_tse_mac_set_duplex
000a3624 T alt_tse_mac_set_speed
000a3680 T tse_mac_setGMIImode
000a369c T tse_mac_setMIImode
000a36b8 T tse_mac_SwReset
000a36f4 T alt_tse_phy_cfg_pcs
000a3854 T alt_tse_mac_associate_phy
000a3ad0 T alt_tse_mac_group_init
000a3cec T alt_tse_system_add_sys
000a4030 T alt_tse_phy_add_profile
000a4178 T alt_tse_phy_add_profile_default
000a43f8 T tse_mac_aRxRead
000a445c T tse_mac_sTxWrite
000a44f4 T alt_tse_phy_restart_an
000a4798 T alt_tse_phy_get_cap
000a4b74 T alt_tse_phy_check_link
000a4d74 T alt_tse_phy_set_adv_1000
000a4ef8 T alt_tse_phy_set_adv_100
000a50d4 T alt_tse_phy_set_adv_10
000a5258 T alt_tse_phy_get_common_speed
000a5524 T alt_tse_mac_get_common_speed
000a5590 T alt_tse_mac_get_phy
000a5894 T alt_tse_phy_init
000a5988 T getPHYSpeed
000a5ee0 T alt_tse_phy_set_common_speed
000a6458 T alt_tse_mac_set_common_speed
000a64c4 T sysuptime
000a64f0 T mcastlist
000a64f8 T prep_modules
000a6530 T packet_check
000a6564 T station_state
000a6684 T icmp_port_du
000a66dc T netmain_init
000a6798 T in_timerset
000a6868 T in_timerkill
000a6904 T inet_timer
000a6b70 T create_apptasks
000a6b78 T task_stats
000a6be8 T fcntl
000a6c3c T grat_arp
000a6e40 T arp_free_pending
000a6ea4 T arpReply
000a70a4 T et_send
000a71e0 T arp_send_pending
000a7228 T etainit
000a7260 T cb_arpent_tmo
000a7374 T find_oldest_arp
000a74f8 T make_arp_entry
000a7710 T arprcv
000a78a0 T send_arp
000a7b8c T send_via_arp
000a7e18 T isbcast
000a7e90 T reg_type
000a7ef0 T if_killsocks
000a7f54 T if_getbynum
000a7f9c T ip_copypkt
000a8068 T iproute
000a81c0 T ip_bldhead
000a8278 T ip_dump
000a8418 T ip_fragment_lc
000a86ec T ip_fragment
000a8af4 T ip_init
000a8bb4 T ip_mymach
000a8d44 T ip_write_internal
000a9434 T ip_raw_write
000a94b8 T ip_write2
000a96c4 T ip_write
000a97d4 T ip_reasm_match_frag_with_ire
000a9828 T ip_reasm_determine_type_of_frag
000a9874 T ip_reasm_check_mem_useage
000a98d0 T ip_reasm_incr_mem_useage
000a9930 T ip_reasm_decr_mem_useage
000a9990 T ip_reasm_find_ire
000a99b4 T ip_reasm_mark_compact_rfq
000a9c48 T ip_reasm_send_icmp_timex
000a9c74 T ipr_stats
000aa054 T ip_reasm_compute_overlap
000aa3d0 T ip_reasm_delete_ire
000aa5d4 T ip_reasm_copy_queued_fragments_into_reassy_buffer
000aa864 T ip_reasm_process_timer_tick
000aa940 T ip_reasm_process_subsequent_fragments
000aaf38 T ip_reasm_process_first_fragment
000ab1a8 T ip_reassm
000ab200 T ip_demux
000ab48c T ip_rcv_phase2
000ab810 T ip_rcv
000ab9e4 T lookup_mcast
000aba08 T in_delmulti
000abad4 T in_addmulti
000abc10 T evtmap_setup
000abc20 T netexit
000abc44 T prep_ifaces
000abcd0 T ip_raw_maxalloc
000abcf8 T ip_raw_free
000abd38 T ip_raw_alloc
000abdc0 T ip_raw_input
000abf5c T ip_raw_close
000abfcc T ip_raw_open
000ac090 T rt_lookup
000ac184 T del_route
000ac2f8 T add_route
000ac570 T udpswap
000ac5c4 T udp_socket
000ac64c T udp_maxalloc
000ac660 T udp_free
000ac6a0 T udp_alloc
000ac720 T udp_send
000ac948 T udpdemux
000aceb4 T igmpv1_input
000ad094 T igmpv2_chk_set_timer
000ad160 T igmpv2_chk4_rtr_alert_opt
000ad1fc T igmpv2_process_report
000ad2ec T igmpv2_process_query
000ad578 T igmpv2_input
000ad6f0 T IPADDR_TO_NETP
000ad7bc T ip_getmoptions
000ad848 T ip_freemoptions
000ad8c0 T ip_setmoptions
000add50 T u_mctest_run
000ae35c T u_mctest_init
000ae368 T init_memdev
000ae3ac T md_fopen
000ae3b4 T md_fclose
000ae3b8 T md_fwrite
000ae3e8 T md_fseek
000ae3f0 T md_ftell
000ae3f8 T md_fgetc
000ae444 T md_unlink
000ae44c T md_fread
000ae524 T hextoa
000ae540 T inet_setport
000ae568 T convert_ip
000ae628 T print46_addr
000ae648 T inet_ntop
000ae6b4 T parse_ipad
000ae94c T inet_pton
000ae9dc T inet_addr
000aea34 T inet46_addr
000aead4 T tcp_cksum
000aebe0 T udp_close
000aec7c T udp_open
000aee20 T in_pcblookup
000af208 T in_setpeeraddr
000af240 T in_setsockaddr
000af278 T in_pcbdetach
000af2b0 T in_pcballoc
000af31c T in_pcbdisconnect
000af380 T in_pcbbind
000af7cc T in_pcbconnect
000afaa0 T set_vfopen_error
000afaa8 T get_vfopen_error
000afab0 T vunlink_flag_open_files
000afadc T isvfile_locked
000afb00 T strippath
000afbec T vgetc_locked
000afc68 T vfslookup_locked
000afd30 T vf_free_buffer
000afd64 T vfflush
000afda4 T vf_alloc_buffer
000afe08 T vf_alloc_and_link_vop
000afe68 T vfread
000aff94 T vclearerr
000afff0 T vferror
000b0054 T isvfile
000b00c0 T vftell
000b01a4 T vfseek
000b02a0 T vgetc
000b0360 T vfeof
000b041c T vfgets
000b0548 T vfwrite_locked
000b07e4 T vfwrite
000b0860 T vfclose_locked
000b09d4 T vfclose
000b0a14 T vfopen_locked
000b0d08 T vfopen
000b0d64 T vfslookup
000b0e48 T vunlink
000b103c T prep_vfs
000b1044 T alt_fcntl
000b1160 T alt_find_file
000b1210 T alt_get_fd
000b12f0 T alt_icache_flush
000b1328 T icmp_du
000b1368 T icmp_timex
000b1580 T icmp_destun
000b182c T icmprcv
000b2018 T atexit
000b202c T _atoi_r
000b2038 T atoi
000b2044 T calloc
000b2060 T exit
000b2098 T getc
000b2130 T _getc_r
000b21c0 T free
000b21d4 T malloc
000b21e8 T memcmp
000b225c T __srget_r
000b22a8 T __srget
000b22bc T sprintf
000b2330 T _sprintf_r
000b2390 T strchr
000b2470 T strcpy
000b24fc T strncmp
000b25ec T _strtol_r
000b2830 T strtol
000b2854 T _vprintf_r
000b2868 T vprintf
000b2888 T _vsprintf_r
000b28d8 T vsprintf
000b28fc T __register_exitproc
000b2a30 t register_fini
000b2a34 T __call_exitprocs
000b2be4 T __srefill_r
000b2da8 t lflush
000b2dc4 T _exit
000b2e50 A __CTOR_LIST__
000b2e54 A __CTOR_END__
000b2e54 A __DTOR_END__
000b2e54 A __DTOR_LIST__
000b2e54 A __flash_rodata_start
000b2e54 A __ram_rodata_start
000b3ee2 r zeroes.3453
000b3ef2 r blanks.3452
000b3f20 r lconv
000b3f50 R __mprec_tens
000b4018 R __mprec_bigtens
000b4040 R __mprec_tinytens
000b4068 r p05.2458
000b4074 R __thenan_df
000b4088 R __clz_tab
000b41b6 R OSUnMapTbl
000b76c4 r dsts
000b76dc R _ctype_
000b77dd r _ctype_b
000b7960 A __ram_rodata_end
000b7960 A __ram_rwdata_start
000b7960 G acquisition_task
000b7978 g impure_data
000b7d78 G __lc_ctype
000b7d84 G __malloc_av_
000b818c g jtag_uart
000b91f8 g sgdma_rx
000b9228 g sgdma_tx
000b9258 G nettasks
000b9288 G tcp_protosw
000b92a0 G udp_protosw
000b92b8 G rawip_protosw
000b92d0 G tcp_outflags
000b92db G tcp_backoff
000b92e8 G alt_dev_null
000b9310 G alt_fd_list
000b9490 G tse_mac_device
000b95b0 G icmpdu_types
000b95c8 G rtp_priority
000b95d4 G mdio
000b95f8 G mdlist
000b96a8 G vfs_root_path
000b9728 G __divsi3_table
000b9828 G alt_2_wireDelay
000b982c G SDA
000b9830 G SCL
000b9834 G _impure_ptr
000b9838 G _global_impure_ptr
000b983c G __mb_cur_max
000b9840 g charset
000b9844 G __malloc_trim_threshold
000b9848 G __malloc_sbrk_base
000b984c G alt_priority_mask
000b9850 g heap_end
000b9854 g lockid
000b9858 g lockid
000b985c G OSDebugEn
000b9860 G OSEndiannessTest
000b9864 G OSEventEn
000b9866 G OSEventMax
000b9868 G OSEventNameSize
000b986a G OSEventSize
000b986c G OSEventTblSize
000b986e G OSEventMultiEn
000b9870 G OSFlagEn
000b9872 G OSFlagGrpSize
000b9874 G OSFlagNodeSize
000b9876 G OSFlagWidth
000b9878 G OSFlagMax
000b987a G OSFlagNameSize
000b987c G OSLowestPrio
000b987e G OSMboxEn
000b9880 G OSMemEn
000b9882 G OSMemMax
000b9884 G OSMemNameSize
000b9886 G OSMemSize
000b9888 G OSMemTblSize
000b988a G OSMutexEn
000b988c G OSPtrSize
000b988e G OSQEn
000b9890 G OSQMax
000b9892 G OSQSize
000b9894 G OSRdyTblSize
000b9896 G OSSemEn
000b9898 G OSStkWidth
000b989a G OSTaskCreateEn
000b989c G OSTaskCreateExtEn
000b989e G OSTaskDelEn
000b98a0 G OSTaskIdleStkSize
000b98a2 G OSTaskProfileEn
000b98a4 G OSTaskMax
000b98a6 G OSTaskNameSize
000b98a8 G OSTaskStatEn
000b98aa G OSTaskStatStkSize
000b98ac G OSTaskStatStkChkEn
000b98ae G OSTaskSwHookEn
000b98b0 G OSTCBPrioTblMax
000b98b2 G OSTCBSize
000b98b4 G OSTicksPerSec
000b98b6 G OSTimeTickHookEn
000b98b8 G OSVersionNbr
000b98ba G OSTmrEn
000b98bc G OSTmrCfgMax
000b98be G OSTmrCfgNameSize
000b98c0 G OSTmrCfgWheelSize
000b98c2 G OSTmrCfgTicksPerSec
000b98c4 G OSTmrSize
000b98c6 G OSTmrTblSize
000b98c8 G OSTmrWheelSize
000b98ca G OSTmrWheelTblSize
000b98cc G OSDataSize
000b98d0 G tse_mac_name
000b98d4 G alt_sgdma_list
000b98dc G alt_iniche_dev_list
000b98e4 G ipmcfail_str
000b98e8 G num_net_tasks
000b98ec G lilbufs
000b98f0 G lilbufsiz
000b98f4 G bigbufs
000b98f8 G bigbufsiz
000b98fc G kb_last
000b9900 G TCPTV_MSL
000b9904 G socket_defaults
000b9906 G tcprexmtthresh
000b9908 G tcp_ttl
000b990c G tcp_keepidle
000b9910 G tcp_keepintvl
000b9914 G tcp_sendspace
000b9918 G tcp_recvspace
000b991c G alt_fs_list
000b9924 G alt_dev_list
000b992c G alt_max_fd
000b9930 G alt_errno
000b9934 G alt_alarm_list
000b993c G max_mac_system
000b9940 G name
000b9944 G prompt
000b9948 G pingdelay
000b994c G deflength
000b9950 G arp_ageout
000b9954 G ipRoutes
000b9958 g uid
000b995c g iCounter.4493
000b9960 G mdlist_size
000b9964 G pton_error
000b9968 G http_root_path
000b996c G __ctype_ptr
000b9970 A __flash_rwdata_start
000b9970 A __ram_rwdata_end
000b9970 A _edata
000bb980 A __bss_start
000bb980 B debug
000bb984 B bus
000bb988 B acq_buff_int_number
000bb98c B status_int_number
000bb990 B tx_buff_end_wr
000bb994 B tx_buff_end_rd
000bb998 B to_acquisition_task
000bb99c B __nlocale_changed
000bb9a0 B __mlocale_changed
000bb9a4 B _PathLocale
000bb9a8 B __malloc_top_pad
000bb9ac B __malloc_max_sbrked_mem
000bb9b0 B __malloc_max_total_mem
000bb9b4 B errno
000bb9b8 B alt_irq_active
000bb9bc B alt_argc
000bb9c0 B alt_argv
000bb9c4 B alt_envp
000bb9c8 b locks
000bb9cc B alt_envsem
000bb9d0 b locks
000bb9d4 B alt_heapsem
000bb9d8 B OSLockNesting
000bb9d9 B OSRunning
000bb9dc B OSIdleCtr
000bb9e0 B OSPrioHighRdy
000bb9e1 B OSPrioCur
000bb9e4 B OSTCBList
000bb9e8 B OSTickStepState
000bb9ec B OSCtxSwCtr
000bb9f0 B OSIdleCtrMax
000bb9f4 B OSTCBFreeList
000bb9f8 B OSCPUUsage
000bb9f9 B OSTaskCtr
000bb9fc B OSMemFreeList
000bba00 B OSTCBHighRdy
000bba04 B OSQFreeList
000bba08 B OSRdyGrp
000bba09 B OSRdyTbl
000bba0c B OSEventFreeList
000bba10 B OSIntNesting
000bba14 B OSTCBCur
000bba18 B OSTime
000bba1c B OSFlagFreeList
000bba20 B OSStatRdy
000bba24 B OSIdleCtrRun
000bba28 B number_of_tse_mac
000bba2c B MaxLnh
000bba30 B MaxMtu
000bba34 B NDEBUG
000bba38 B ifNumber
000bba3c b nclosers
000bba40 B igmp_timers_are_running
000bba44 B igmp_cticks
000bba48 B igmp_all_hosts_group
000bba4c B igmp_all_rtrs_group
000bba50 B netmain_wakes
000bba54 B nettick_wakes
000bba58 B iniche_net_ready
000bba5c B to_netmain
000bba5d B to_nettick
000bba60 B tcp_sleep_timeout
000bba64 B cticks_initialized
000bba68 B irq_level
000bba6c b kbd_init.3735
000bba70 b cpu_statusreg
000bba74 B cticks_factor
000bba78 B OS_TPS
000bba7c B tcp_sleep_count
000bba80 B tcp_wakeup_count
000bba84 B netq_intmask
000bba88 B old_mode
000bba8c B global_TCPwakeup_setIndx
000bba90 B cticks
000bba94 B memtrapsize
000bba98 B mheap_sem_ptr
000bba9c B rcvdq_sem_ptr
000bbaa0 B nextslow
000bbaa4 b in_tcptick
000bbaa8 B mbstat
000bbab0 B select_wait
000bbab4 B tcpprintfs
000bbab8 B dropline
000bbabc B tcp_optionbuf
000bbac0 B tcp_maxidle
000bbac4 B tcp_iss
000bbac8 B alt_fd_list_lock
000bbacc B _alt_tick_rate
000bbad0 B _alt_nticks
000bbad4 B phy_profile_count
000bbad5 B mac_group_count
000bbad6 b is_init.4593
000bbad7 b tse_system_count.4413
000bbad8 B activehost
000bbadc b inside_pktdemux
000bbae0 B nextppp
000bbae4 B port_1s_callout
000bbae8 b numtimers
000bbaec B arpcache
000bbaf0 B arpReqsIn
000bbaf4 B arpReqsOut
000bbaf8 B arpRepsIn
000bbafc B arpRepsOut
000bbb00 b arp_timer
000bbb04 b cachetime
000bbb08 B rt_mib
000bbb0c B ipr_curr_mem
000bbb10 B h_ireq
000bbb14 B ire_cticks
000bbb18 B port_prep
000bbb1c B net_system_exit
000bbb20 B so_evtmap_create
000bbb24 B so_evtmap_delete
000bbb28 B so_evtmap
000bbb2c B ipraw_eps
000bbb30 B cachedRoute
000bbb34 b usocket
000bbb38 B firstudp
000bbb3c B inpcb_cachehits
000bbb40 B inpcb_cachemiss
000bbb44 B vfsystems
000bbb48 B vfiles
000bbb4c B vfsfiles
000bbb50 B vfopen_error
000bbb54 B vfs_dir_stale
000bbb58 B vfs_open_files
000bbb5c B vfs_total_rw_space
000bbb60 B vfs_total_dyna_files
000bbb64 B icmpdu_hook
000bbb68 B __malloc_current_mallinfo
000bbb90 b closers
000bbbcc b tistring
000bbbe4 b nearBuf.4136
000bbc04 B tx_buff_end_queue
000bbc1c B InitialTaskStk
000bdc1c B alt_irq
000bdd1c B OSFlagTbl
000be08c B OSMemTbl
000becbc B OSTaskStatStk
000bf4bc B OSQTbl
000bf69c B OSTaskIdleStk
000bfe9c B OSEventTbl
000c09dc B OSTCBTbl
000c0eec B OSTCBPrioTbl
000c0f40 B tse_mac_if
000c1020 B tse_iniche_dev_driver_data
000c1050 B tse
000c1180 B rcvdq
000c1194 B netstatic
000c1494 B nets
000c14a4 B igmpstats
000c1508 B eth_prt_buf
000c151a B ipreturn
000c152c B lilfreeq
000c1540 B memestats
000c1550 B pktlog
000c1640 B bigfreeq
000c1654 B global_tcb_ext
000c1750 B global_TCPwakeup_set
000c1828 A _gp
000c1840 B resid_semaphore
000c1880 B app_semaphore
000c1898 B soq
000c18ac B tcpmib
000c18e8 B mbufq
000c18fc B mfreeq
000c1910 B tcp_saveti
000c1938 B tcb
000c1964 B tcpstat
000c1a44 B pmac_groups
000c1a54 B pphy_profiles
000c1a64 B intimers
000c1ac8 B arp_table
000c1bc8 B netlist
000c1bdc B ip_mib
000c1c2c B ire_stats
000c1c44 B udp_mib
000c1c54 B icmp_mib
000c1cbc B _atexit0
000c1e4c A __alt_heap_start
000c1e4c A __alt_stack_base
000c1e4c A __bss_end
000c1e4c A _end
000c1e4c A end
000fd000 A __alt_data_end
000fd000 A __alt_heap_limit
000fd000 A __alt_stack_pointer
00100000 A __alt_mem_acq_mem
00102800 A __alt_mem_descriptor_memory
00103c00 A __alt_mem_status_mem
00104000 A __alt_mem_fake_status_mem
